[
    {
        "pk": 1, 
        "model": "absence.absence", 
        "fields": {
            "date_from": "2016-10-11", 
            "date_to": "2016-10-11", 
            "notice": "", 
            "child": 468
        }
    }, 
    {
        "pk": 2, 
        "model": "absence.absence", 
        "fields": {
            "date_from": "2016-10-05", 
            "date_to": "2016-10-05", 
            "notice": "", 
            "child": 312
        }
    }, 
    {
        "pk": 3, 
        "model": "absence.absence", 
        "fields": {
            "date_from": "2016-10-05", 
            "date_to": "2016-10-05", 
            "notice": "", 
            "child": 312
        }
    }, 
    {
        "pk": 4, 
        "model": "absence.absence", 
        "fields": {
            "date_from": "2016-10-20", 
            "date_to": "2016-10-29", 
            "notice": "", 
            "child": 312
        }
    }, 
    {
        "pk": 5, 
        "model": "absence.absence", 
        "fields": {
            "date_from": "2016-10-12", 
            "date_to": "2016-10-12", 
            "notice": "Something very long Something very long Something very long Something very long Something very long Something very long Something very long Something very long Something very long Something very long ", 
            "child": 312
        }
    }, 
    {
        "pk": 6, 
        "model": "absence.absence", 
        "fields": {
            "date_from": "2016-10-13", 
            "date_to": "2016-10-13", 
            "notice": "Sample notice here", 
            "child": 312
        }
    }, 
    {
        "pk": 7, 
        "model": "absence.absence", 
        "fields": {
            "date_from": "2016-10-19", 
            "date_to": "2016-10-19", 
            "notice": "", 
            "child": 312
        }
    }, 
    {
        "pk": 8, 
        "model": "absence.absence", 
        "fields": {
            "date_from": "2016-10-21", 
            "date_to": "2016-10-21", 
            "notice": "Just a few words", 
            "child": 312
        }
    }, 
    {
        "pk": 9, 
        "model": "absence.absence", 
        "fields": {
            "date_from": "2016-10-20", 
            "date_to": "2016-10-29", 
            "notice": "", 
            "child": 312
        }
    }, 
    {
        "pk": 10, 
        "model": "absence.absence", 
        "fields": {
            "date_from": "2116-10-05", 
            "date_to": "2116-10-05", 
            "notice": "", 
            "child": 312
        }
    }, 
    {
        "pk": 11, 
        "model": "absence.absence", 
        "fields": {
            "date_from": "2116-10-12", 
            "date_to": "2116-10-13", 
            "notice": "Family holiday in Tanzania", 
            "child": 312
        }
    }
]
